<svg width="18" height="18" viewBox="0 0 18 18" version="1.1" xmlns="http://www.w3.org/2000/svg" xmlns:xlink="http://www.w3.org/1999/xlink">
<g id="Canvas" fill="none">
<g id="Group">
<g id="Oval">
<path d="M 6.4 12.8C 9.93462 12.8 12.8 9.93462 12.8 6.4C 12.8 2.86538 9.93462 0 6.4 0C 2.86538 0 0 2.86538 0 6.4C 0 9.93462 2.86538 12.8 6.4 12.8Z" stroke-width="2" stroke-linecap="square" transform="translate(14.4131 1.79999) scale(-1 1)" stroke="#0086e6"/>
</g>
<g id="Line">
<path d="M 2.82843 0L 0 2.82843" stroke-width="2" stroke-linecap="square" transform="translate(15.5947 13.608) scale(-1 1)" stroke="#0086e6"/>
</g>
</g>
</g>
</svg>

